%YAML 1.1
%TAG !u! tag:unity3d.com,2011:
--- !u!29 &1
SceneSettings:
  m_ObjectHideFlags: 0
  m_PVSData: 
  m_PVSObjectsArray: []
  m_PVSPortalsArray: []
  m_OcclusionBakeSettings:
    smallestOccluder: 5
    smallestHole: .25
    backfaceThreshold: 100
--- !u!104 &2
RenderSettings:
  m_Fog: 0
  m_FogColor: {r: .5, g: .5, b: .5, a: 1}
  m_FogMode: 3
  m_FogDensity: .00999999978
  m_LinearFogStart: 0
  m_LinearFogEnd: 300
  m_AmbientLight: {r: .200000003, g: .200000003, b: .200000003, a: 1}
  m_SkyboxMaterial: {fileID: 2100000, guid: 528db8e57a62422459493b7484b882f7, type: 2}
  m_HaloStrength: .5
  m_FlareStrength: 1
  m_FlareFadeSpeed: 3
  m_HaloTexture: {fileID: 0}
  m_SpotCookie: {fileID: 0}
  m_ObjectHideFlags: 0
--- !u!127 &3
LevelGameManager:
  m_ObjectHideFlags: 0
--- !u!157 &4
LightmapSettings:
  m_ObjectHideFlags: 0
  m_LightProbes: {fileID: 0}
  m_Lightmaps: []
  m_LightmapsMode: 1
  m_BakedColorSpace: 0
  m_UseDualLightmapsInForward: 0
  m_LightmapEditorSettings:
    m_Resolution: 50
    m_LastUsedResolution: 0
    m_TextureWidth: 1024
    m_TextureHeight: 1024
    m_BounceBoost: 1
    m_BounceIntensity: 1
    m_SkyLightColor: {r: .860000014, g: .930000007, b: 1, a: 1}
    m_SkyLightIntensity: 0
    m_Quality: 0
    m_Bounces: 1
    m_FinalGatherRays: 1000
    m_FinalGatherContrastThreshold: .0500000007
    m_FinalGatherGradientThreshold: 0
    m_FinalGatherInterpolationPoints: 15
    m_AOAmount: 0
    m_AOMaxDistance: .100000001
    m_AOContrast: 1
    m_LODSurfaceMappingDistance: 1
    m_Padding: 0
    m_TextureCompression: 0
    m_LockAtlas: 0
--- !u!196 &5
NavMeshSettings:
  m_ObjectHideFlags: 0
  m_BuildSettings:
    agentRadius: .5
    agentHeight: 2
    agentSlope: 45
    agentClimb: .400000006
    ledgeDropHeight: 0
    maxJumpAcrossDistance: 0
    accuratePlacement: 0
    minRegionArea: 2
    widthInaccuracy: 16.666666
    heightInaccuracy: 10
    tileSizeHint: 0
  m_NavMesh: {fileID: 0}
--- !u!1001 &670619290
Prefab:
  m_ObjectHideFlags: 0
  serializedVersion: 2
  m_Modification:
    m_TransformParent: {fileID: 0}
    m_Modifications:
    - target: {fileID: 400000, guid: 4698c91b91d5fcf4bac2569088e9ec39, type: 2}
      propertyPath: m_LocalPosition.x
      value: 0
      objectReference: {fileID: 0}
    - target: {fileID: 400000, guid: 4698c91b91d5fcf4bac2569088e9ec39, type: 2}
      propertyPath: m_LocalPosition.y
      value: 0
      objectReference: {fileID: 0}
    - target: {fileID: 400000, guid: 4698c91b91d5fcf4bac2569088e9ec39, type: 2}
      propertyPath: m_LocalPosition.z
      value: 0
      objectReference: {fileID: 0}
    - target: {fileID: 400000, guid: 4698c91b91d5fcf4bac2569088e9ec39, type: 2}
      propertyPath: m_LocalRotation.x
      value: -.298541129
      objectReference: {fileID: 0}
    - target: {fileID: 400000, guid: 4698c91b91d5fcf4bac2569088e9ec39, type: 2}
      propertyPath: m_LocalRotation.y
      value: 0
      objectReference: {fileID: 0}
    - target: {fileID: 400000, guid: 4698c91b91d5fcf4bac2569088e9ec39, type: 2}
      propertyPath: m_LocalRotation.z
      value: 0
      objectReference: {fileID: 0}
    - target: {fileID: 400000, guid: 4698c91b91d5fcf4bac2569088e9ec39, type: 2}
      propertyPath: m_LocalRotation.w
      value: .954396784
      objectReference: {fileID: 0}
    m_RemovedComponents: []
  m_ParentPrefab: {fileID: 100100000, guid: 4698c91b91d5fcf4bac2569088e9ec39, type: 2}
  m_RootGameObject: {fileID: 1175893033}
  m_IsPrefabParent: 0
  m_IsExploded: 1
--- !u!1 &1028394193
GameObject:
  m_ObjectHideFlags: 0
  m_PrefabParentObject: {fileID: 100000, guid: 6a17e58f963e36a448fb1125497b928c, type: 2}
  m_PrefabInternal: {fileID: 2043172016}
  serializedVersion: 4
  m_Component:
  - 4: {fileID: 1028394195}
  - 114: {fileID: 1028394194}
  m_Layer: 0
  m_Name: PF_LevelLoader
  m_TagString: Untagged
  m_Icon: {fileID: 0}
  m_NavMeshLayer: 0
  m_StaticEditorFlags: 0
  m_IsActive: 1
--- !u!114 &1028394194
MonoBehaviour:
  m_ObjectHideFlags: 0
  m_PrefabParentObject: {fileID: 11400000, guid: 6a17e58f963e36a448fb1125497b928c,
    type: 2}
  m_PrefabInternal: {fileID: 2043172016}
  m_GameObject: {fileID: 1028394193}
  m_Enabled: 1
  m_EditorHideFlags: 0
  m_Script: {fileID: 11500000, guid: 8834a24b4fbf15d488dd848268bbbace, type: 3}
  m_Name: 
  m_EditorClassIdentifier: 
--- !u!4 &1028394195
Transform:
  m_ObjectHideFlags: 0
  m_PrefabParentObject: {fileID: 400000, guid: 6a17e58f963e36a448fb1125497b928c, type: 2}
  m_PrefabInternal: {fileID: 2043172016}
  m_GameObject: {fileID: 1028394193}
  m_LocalRotation: {x: 0, y: 0, z: 0, w: 1}
  m_LocalPosition: {x: 0, y: 0, z: 0}
  m_LocalScale: {x: 1, y: 1, z: 1}
  m_Children: []
  m_Father: {fileID: 0}
  m_RootOrder: 0
--- !u!1 &1175893033
GameObject:
  m_ObjectHideFlags: 0
  m_PrefabParentObject: {fileID: 100000, guid: 4698c91b91d5fcf4bac2569088e9ec39, type: 2}
  m_PrefabInternal: {fileID: 670619290}
  serializedVersion: 4
  m_Component:
  - 4: {fileID: 1175893039}
  - 20: {fileID: 1175893038}
  - 92: {fileID: 1175893037}
  - 124: {fileID: 1175893036}
  - 81: {fileID: 1175893035}
  - 114: {fileID: 1175893034}
  m_Layer: 0
  m_Name: PF_MainCamera
  m_TagString: MainCamera
  m_Icon: {fileID: 0}
  m_NavMeshLayer: 0
  m_StaticEditorFlags: 0
  m_IsActive: 1
--- !u!114 &1175893034
MonoBehaviour:
  m_ObjectHideFlags: 0
  m_PrefabParentObject: {fileID: 11400000, guid: 4698c91b91d5fcf4bac2569088e9ec39,
    type: 2}
  m_PrefabInternal: {fileID: 670619290}
  m_GameObject: {fileID: 1175893033}
  m_Enabled: 1
  m_EditorHideFlags: 0
  m_Script: {fileID: 11500000, guid: 9fc41be420bb2ca458fe386c28cef666, type: 3}
  m_Name: 
  m_EditorClassIdentifier: 
  verticalSensitivity: 10
  horizontalSensitivity: 10
  mouseCenteredAndHidden: 0
  allowEscape: 0
--- !u!81 &1175893035
AudioListener:
  m_ObjectHideFlags: 0
  m_PrefabParentObject: {fileID: 8100000, guid: 4698c91b91d5fcf4bac2569088e9ec39,
    type: 2}
  m_PrefabInternal: {fileID: 670619290}
  m_GameObject: {fileID: 1175893033}
  m_Enabled: 1
--- !u!124 &1175893036
Behaviour:
  m_ObjectHideFlags: 0
  m_PrefabParentObject: {fileID: 12400000, guid: 4698c91b91d5fcf4bac2569088e9ec39,
    type: 2}
  m_PrefabInternal: {fileID: 670619290}
  m_GameObject: {fileID: 1175893033}
  m_Enabled: 1
--- !u!92 &1175893037
Behaviour:
  m_ObjectHideFlags: 0
  m_PrefabParentObject: {fileID: 9200000, guid: 4698c91b91d5fcf4bac2569088e9ec39,
    type: 2}
  m_PrefabInternal: {fileID: 670619290}
  m_GameObject: {fileID: 1175893033}
  m_Enabled: 1
--- !u!20 &1175893038
Camera:
  m_ObjectHideFlags: 0
  m_PrefabParentObject: {fileID: 2000000, guid: 4698c91b91d5fcf4bac2569088e9ec39,
    type: 2}
  m_PrefabInternal: {fileID: 670619290}
  m_GameObject: {fileID: 1175893033}
  m_Enabled: 1
  serializedVersion: 2
  m_ClearFlags: 1
  m_BackGroundColor: {r: .192156866, g: .301960796, b: .474509805, a: .0196078438}
  m_NormalizedViewPortRect:
    serializedVersion: 2
    x: 0
    y: 0
    width: 1
    height: 1
  near clip plane: .300000012
  far clip plane: 1000
  field of view: 60
  orthographic: 0
  orthographic size: 100
  m_Depth: -1
  m_CullingMask:
    serializedVersion: 2
    m_Bits: 4294967295
  m_RenderingPath: -1
  m_TargetTexture: {fileID: 0}
  m_TargetDisplay: 0
  m_HDR: 0
  m_OcclusionCulling: 1
  m_StereoConvergence: 10
  m_StereoSeparation: .0219999999
--- !u!4 &1175893039
Transform:
  m_ObjectHideFlags: 0
  m_PrefabParentObject: {fileID: 400000, guid: 4698c91b91d5fcf4bac2569088e9ec39, type: 2}
  m_PrefabInternal: {fileID: 670619290}
  m_GameObject: {fileID: 1175893033}
  m_LocalRotation: {x: -.298541129, y: 0, z: 0, w: .954396784}
  m_LocalPosition: {x: 0, y: 0, z: 0}
  m_LocalScale: {x: 1, y: 1, z: 1}
  m_Children: []
  m_Father: {fileID: 0}
  m_RootOrder: 1
--- !u!1001 &2043172016
Prefab:
  m_ObjectHideFlags: 0
  serializedVersion: 2
  m_Modification:
    m_TransformParent: {fileID: 0}
    m_Modifications:
    - target: {fileID: 400000, guid: 6a17e58f963e36a448fb1125497b928c, type: 2}
      propertyPath: m_LocalPosition.x
      value: 0
      objectReference: {fileID: 0}
    - target: {fileID: 400000, guid: 6a17e58f963e36a448fb1125497b928c, type: 2}
      propertyPath: m_LocalPosition.y
      value: 0
      objectReference: {fileID: 0}
    - target: {fileID: 400000, guid: 6a17e58f963e36a448fb1125497b928c, type: 2}
      propertyPath: m_LocalPosition.z
      value: 0
      objectReference: {fileID: 0}
    - target: {fileID: 400000, guid: 6a17e58f963e36a448fb1125497b928c, type: 2}
      propertyPath: m_LocalRotation.x
      value: 0
      objectReference: {fileID: 0}
    - target: {fileID: 400000, guid: 6a17e58f963e36a448fb1125497b928c, type: 2}
      propertyPath: m_LocalRotation.y
      value: 0
      objectReference: {fileID: 0}
    - target: {fileID: 400000, guid: 6a17e58f963e36a448fb1125497b928c, type: 2}
      propertyPath: m_LocalRotation.z
      value: 0
      objectReference: {fileID: 0}
    - target: {fileID: 400000, guid: 6a17e58f963e36a448fb1125497b928c, type: 2}
      propertyPath: m_LocalRotation.w
      value: 1
      objectReference: {fileID: 0}
    m_RemovedComponents: []
  m_ParentPrefab: {fileID: 100100000, guid: 6a17e58f963e36a448fb1125497b928c, type: 2}
  m_RootGameObject: {fileID: 1028394193}
  m_IsPrefabParent: 0
  m_IsExploded: 1
